(footprint "FPC_30"
	(version 20240108)
	(generator "pcbnew")
	(generator_version "8.0")
	(layer "F.Cu")
	(property "Reference" "REF**"
		(at 0 3.15 0)
		(layer "F.SilkS")
		(uuid "cadb5223-c07d-4f21-a9e9-f36c370b28a5")
		(effects
			(font
				(size 1 1)
				(thickness 0.15)
			)
		)
	)
	(property "Value" "FPC_30"
		(at 0 4.3 0)
		(layer "F.Fab")
		(uuid "44b77388-6e30-4659-9f4a-19424840f2e6")
		(effects
			(font
				(size 1 1)
				(thickness 0.15)
			)
		)
	)
	(property "Footprint" ""
		(at 0 0 0)
		(layer "F.Fab")
		(hide yes)
		(uuid "2cd0134c-a018-4975-9b68-e57e8382e40d")
		(effects
			(font
				(size 1.27 1.27)
				(thickness 0.15)
			)
		)
	)
	(property "Datasheet" ""
		(at 0 0 0)
		(layer "F.Fab")
		(hide yes)
		(uuid "4d30156c-029e-49d1-bc34-cee6a6465218")
		(effects
			(font
				(size 1.27 1.27)
				(thickness 0.15)
			)
		)
	)
	(property "Description" ""
		(at 0 0 0)
		(layer "F.Fab")
		(hide yes)
		(uuid "e293924d-a851-4342-b393-785428f9f77f")
		(effects
			(font
				(size 1.27 1.27)
				(thickness 0.15)
			)
		)
	)
	(attr smd)
	(fp_line
		(start -7.4 -2)
		(end -7.4 2)
		(stroke
			(width 0.05)
			(type default)
		)
		(layer "F.CrtYd")
		(uuid "bef706fd-fba3-49a3-91a5-f523419f155e")
	)
	(fp_line
		(start -7.4 -2)
		(end 7.4 -2)
		(stroke
			(width 0.05)
			(type default)
		)
		(layer "F.CrtYd")
		(uuid "57d4dc85-0d4b-48df-80a9-f5ffb6f0204b")
	)
	(fp_line
		(start -7.4 2)
		(end 7.4 2)
		(stroke
			(width 0.05)
			(type default)
		)
		(layer "F.CrtYd")
		(uuid "164036a1-ab90-41c2-a5be-ebe730d65bb9")
	)
	(fp_line
		(start 7.4 -2)
		(end 7.4 2)
		(stroke
			(width 0.05)
			(type default)
		)
		(layer "F.CrtYd")
		(uuid "7dcbb7b2-8adb-4317-ba70-6f3a870bf1d6")
	)
	(pad "1" smd rect
		(at -7.25 0)
		(size 0.3 4)
		(layers "F.Cu" "F.Paste" "F.Mask")
		(thermal_bridge_angle 45)
		(uuid "7d16b7af-8d13-465a-98fe-b112c037099c")
	)
	(pad "2" smd rect
		(at -6.75 0)
		(size 0.3 4)
		(layers "F.Cu" "F.Paste" "F.Mask")
		(thermal_bridge_angle 45)
		(uuid "ebd08105-3172-41f7-a9be-fb986b4a07f8")
	)
	(pad "3" smd rect
		(at -6.25 0)
		(size 0.3 4)
		(layers "F.Cu" "F.Paste" "F.Mask")
		(thermal_bridge_angle 45)
		(uuid "2f68e48b-275f-42fc-86f7-71ca146586dd")
	)
	(pad "4" smd rect
		(at -5.75 0)
		(size 0.3 4)
		(layers "F.Cu" "F.Paste" "F.Mask")
		(thermal_bridge_angle 45)
		(uuid "5a999d30-168d-4691-82c7-6e2781d5ed91")
	)
	(pad "5" smd rect
		(at -5.25 0)
		(size 0.3 4)
		(layers "F.Cu" "F.Paste" "F.Mask")
		(thermal_bridge_angle 45)
		(uuid "187caa64-d420-4d36-97cb-4a6034458cc9")
	)
	(pad "6" smd rect
		(at -4.75 0)
		(size 0.3 4)
		(layers "F.Cu" "F.Paste" "F.Mask")
		(thermal_bridge_angle 45)
		(uuid "44f7ad03-cca3-4052-90ca-b5db730b2c7c")
	)
	(pad "7" smd rect
		(at -4.25 0)
		(size 0.3 4)
		(layers "F.Cu" "F.Paste" "F.Mask")
		(thermal_bridge_angle 45)
		(uuid "c3520652-d2aa-470a-b711-e917514806fd")
	)
	(pad "8" smd rect
		(at -3.75 0)
		(size 0.3 4)
		(layers "F.Cu" "F.Paste" "F.Mask")
		(thermal_bridge_angle 45)
		(uuid "f0b51b74-f2cb-4c3c-97ea-b56dccb2150b")
	)
	(pad "9" smd rect
		(at -3.25 0)
		(size 0.3 4)
		(layers "F.Cu" "F.Paste" "F.Mask")
		(thermal_bridge_angle 45)
		(uuid "d2bd9ffe-ddd7-4e7d-81dc-ac6ac9d917ae")
	)
	(pad "10" smd rect
		(at -2.75 0)
		(size 0.3 4)
		(layers "F.Cu" "F.Paste" "F.Mask")
		(thermal_bridge_angle 45)
		(uuid "c5b29388-7ac9-4801-9547-d6f4edbb9a6a")
	)
	(pad "11" smd rect
		(at -2.25 0)
		(size 0.3 4)
		(layers "F.Cu" "F.Paste" "F.Mask")
		(thermal_bridge_angle 45)
		(uuid "a27d8c7d-27be-42a2-b09f-9b1a516e85e5")
	)
	(pad "12" smd rect
		(at -1.75 0)
		(size 0.3 4)
		(layers "F.Cu" "F.Paste" "F.Mask")
		(thermal_bridge_angle 45)
		(uuid "84307020-b3aa-4d1d-82a5-a2a97d12b98e")
	)
	(pad "13" smd rect
		(at -1.25 0)
		(size 0.3 4)
		(layers "F.Cu" "F.Paste" "F.Mask")
		(thermal_bridge_angle 45)
		(uuid "84e0b464-84bd-42e0-a4c8-f3db7a111c30")
	)
	(pad "14" smd rect
		(at -0.75 0)
		(size 0.3 4)
		(layers "F.Cu" "F.Paste" "F.Mask")
		(thermal_bridge_angle 45)
		(uuid "7584f619-60a6-4ec7-86a8-22976137e794")
	)
	(pad "15" smd rect
		(at -0.25 0)
		(size 0.3 4)
		(layers "F.Cu" "F.Paste" "F.Mask")
		(thermal_bridge_angle 45)
		(uuid "8270313e-075b-46da-99fe-0056618c11ab")
	)
	(pad "16" smd rect
		(at 0.25 0)
		(size 0.3 4)
		(layers "F.Cu" "F.Paste" "F.Mask")
		(thermal_bridge_angle 45)
		(uuid "4c9b363a-6baf-45bb-a3a9-029db770c27d")
	)
	(pad "17" smd rect
		(at 0.75 0)
		(size 0.3 4)
		(layers "F.Cu" "F.Paste" "F.Mask")
		(thermal_bridge_angle 45)
		(uuid "88da5a96-cf19-4519-8937-65c61febae95")
	)
	(pad "18" smd rect
		(at 1.25 0)
		(size 0.3 4)
		(layers "F.Cu" "F.Paste" "F.Mask")
		(thermal_bridge_angle 45)
		(uuid "30ccd815-a52a-4c5b-8229-50b85dd36d7e")
	)
	(pad "19" smd rect
		(at 1.75 0)
		(size 0.3 4)
		(layers "F.Cu" "F.Paste" "F.Mask")
		(thermal_bridge_angle 45)
		(uuid "c08877b6-4d9a-4f6e-95c4-0e7f644a57c5")
	)
	(pad "20" smd rect
		(at 2.25 0)
		(size 0.3 4)
		(layers "F.Cu" "F.Paste" "F.Mask")
		(thermal_bridge_angle 45)
		(uuid "417ffa30-c70c-40c5-be6a-5d76c1bd36f2")
	)
	(pad "21" smd rect
		(at 2.75 0)
		(size 0.3 4)
		(layers "F.Cu" "F.Paste" "F.Mask")
		(thermal_bridge_angle 45)
		(uuid "54d8e3ef-36a9-4cf3-b51d-268ed9901bed")
	)
	(pad "22" smd rect
		(at 3.25 0)
		(size 0.3 4)
		(layers "F.Cu" "F.Paste" "F.Mask")
		(thermal_bridge_angle 45)
		(uuid "f8e68811-5f93-4ceb-843d-16ad802a861f")
	)
	(pad "23" smd rect
		(at 3.75 0)
		(size 0.3 4)
		(layers "F.Cu" "F.Paste" "F.Mask")
		(thermal_bridge_angle 45)
		(uuid "738d826a-edcb-4b8e-9ee0-678f700e2c58")
	)
	(pad "24" smd rect
		(at 4.25 0)
		(size 0.3 4)
		(layers "F.Cu" "F.Paste" "F.Mask")
		(thermal_bridge_angle 45)
		(uuid "44df62e8-1e69-4c5d-8614-8c30d6a4c896")
	)
	(pad "25" smd rect
		(at 4.75 0)
		(size 0.3 4)
		(layers "F.Cu" "F.Paste" "F.Mask")
		(thermal_bridge_angle 45)
		(uuid "abc502eb-4010-4547-b9a2-28ba09df6c2b")
	)
	(pad "26" smd rect
		(at 5.25 0)
		(size 0.3 4)
		(layers "F.Cu" "F.Paste" "F.Mask")
		(thermal_bridge_angle 45)
		(uuid "226c6b90-9c8d-4bdf-8ea8-e19074d13489")
	)
	(pad "27" smd rect
		(at 5.75 0)
		(size 0.3 4)
		(layers "F.Cu" "F.Paste" "F.Mask")
		(thermal_bridge_angle 45)
		(uuid "7da79db8-2224-445a-95d0-ecc82a2e3fb4")
	)
	(pad "28" smd rect
		(at 6.25 0)
		(size 0.3 4)
		(layers "F.Cu" "F.Paste" "F.Mask")
		(thermal_bridge_angle 45)
		(uuid "b8bf40b9-f369-4533-b022-74a8af624f41")
	)
	(pad "29" smd rect
		(at 6.75 0)
		(size 0.3 4)
		(layers "F.Cu" "F.Paste" "F.Mask")
		(thermal_bridge_angle 45)
		(uuid "ac22c196-0817-4d5d-a6f6-3935bee4db07")
	)
	(pad "30" smd rect
		(at 7.25 0)
		(size 0.3 4)
		(layers "F.Cu" "F.Paste" "F.Mask")
		(thermal_bridge_angle 45)
		(uuid "2baa567d-5e94-4280-be5a-0eb73963bf8a")
	)
)
