(footprint "ICSRC6508-030SFR"
	(version 20240108)
	(generator "pcbnew")
	(generator_version "8.0")
	(layer "F.Cu")
	(property "Reference" "REF**"
		(at 0 -0.5 0)
		(unlocked yes)
		(layer "F.SilkS")
		(uuid "04d9ccea-5703-4c53-8cc2-e5668c4022ec")
		(effects
			(font
				(size 1 1)
				(thickness 0.1)
			)
		)
	)
	(property "Value" "ICSRC6508-030SFR"
		(at 0 1 0)
		(unlocked yes)
		(layer "F.Fab")
		(uuid "b25bc9fc-5e68-4f5a-bd3a-9a162d1d11f8")
		(effects
			(font
				(size 1 1)
				(thickness 0.15)
			)
		)
	)
	(property "Footprint" ""
		(at 0 0 0)
		(unlocked yes)
		(layer "F.Fab")
		(hide yes)
		(uuid "2fb49907-6e27-4fbb-962e-e5d170cbd8eb")
		(effects
			(font
				(size 1 1)
				(thickness 0.15)
			)
		)
	)
	(property "Datasheet" ""
		(at 0 0 0)
		(unlocked yes)
		(layer "F.Fab")
		(hide yes)
		(uuid "7ca1bd1d-aaef-4e15-af38-123e5682ee34")
		(effects
			(font
				(size 1 1)
				(thickness 0.15)
			)
		)
	)
	(property "Description" ""
		(at 0 0 0)
		(unlocked yes)
		(layer "F.Fab")
		(hide yes)
		(uuid "1b5940b5-25f4-4502-afac-c281d890555d")
		(effects
			(font
				(size 1 1)
				(thickness 0.15)
			)
		)
	)
	(attr smd)
	(fp_text user "${REFERENCE}"
		(at 0 2.5 0)
		(unlocked yes)
		(layer "F.Fab")
		(uuid "39da6757-5139-4f29-af47-2cf9e2621950")
		(effects
			(font
				(size 1 1)
				(thickness 0.15)
			)
		)
	)
	(pad "" smd rect
		(at -2.75 0)
		(size 1.1 0.8)
		(layers "F.Paste")
		(thermal_bridge_angle 45)
		(uuid "9402bf61-831e-4d8c-b7a0-a8cf7be48fde")
	)
	(pad "" smd rect
		(at 0 0)
		(size 1 0.8)
		(layers "F.Paste")
		(thermal_bridge_angle 45)
		(uuid "25412e73-dc43-49f8-ac9a-a550a75c1301")
	)
	(pad "" smd rect
		(at 2.75 0)
		(size 1.1 0.8)
		(layers "F.Paste")
		(thermal_bridge_angle 45)
		(uuid "deee3a35-9eae-4d7c-a733-37b6a2d9fe52")
	)
	(pad "1" smd rect
		(at 0 0)
		(size 6.7 0.9)
		(layers "F.Cu" "F.Mask")
		(thermal_bridge_angle 45)
		(uuid "8aaec284-3f5e-4bdf-ba58-ff31f2be1fa8")
	)
	(model "${KIPRJMOD}/../pcb_common/footprints.pretty/ICSRC6508-030SFR.STEP"
		(offset
			(xyz 0 0 0)
		)
		(scale
			(xyz 1 1 1)
		)
		(rotate
			(xyz -90 0 0)
		)
	)
)
