(footprint "MXOnly-1U-NoLED" (version 20211014) (generator pcbnew)
  (layer "F.Cu")
  (tedit 5BD3C6C7)
  (attr through_hole)
  (fp_text reference "REF**" (at 0 3.175) (layer "Dwgs.User")
    (effects (font (size 1 1) (thickness 0.15)))
    (tstamp f6339633-9a48-4f8b-8abc-e894b69a28a7)
  )
  (fp_text value "1U" (at 0 -7.9375) (layer "Dwgs.User")
    (effects (font (size 1 1) (thickness 0.15)))
    (tstamp fd319569-5b0f-41e0-8ce8-f704c74f73e4)
  )
  (fp_line (start 5 7) (end 7 7) (layer "Dwgs.User") (width 0.15) (tstamp 1510bf2c-fd0a-4526-85f8-b31d1a7baa56))
  (fp_line (start 5 -7) (end 7 -7) (layer "Dwgs.User") (width 0.15) (tstamp 209bbcea-09ed-41e4-8d97-2f9f26891830))
  (fp_line (start 9.525 -9.525) (end 9.525 9.525) (layer "Dwgs.User") (width 0.15) (tstamp 2e985def-6d4c-46aa-8866-7c4db460de89))
  (fp_line (start 7 7) (end 7 5) (layer "Dwgs.User") (width 0.15) (tstamp 5261ecce-c8d6-4812-b264-b9ba03df3acc))
  (fp_line (start -7 5) (end -7 7) (layer "Dwgs.User") (width 0.15) (tstamp 587beca4-b14a-48f8-b407-4f8072f1f42a))
  (fp_line (start 9.525 9.525) (end -9.525 9.525) (layer "Dwgs.User") (width 0.15) (tstamp 87a24b19-14d1-44ef-b6fd-c40e38638cb5))
  (fp_line (start -9.525 -9.525) (end 9.525 -9.525) (layer "Dwgs.User") (width 0.15) (tstamp 882a89e6-7537-4f2d-a13d-cdd5a9dfa604))
  (fp_line (start -5 -7) (end -7 -7) (layer "Dwgs.User") (width 0.15) (tstamp b07ad198-c93b-400b-93cd-bc1ea71baac4))
  (fp_line (start -9.525 9.525) (end -9.525 -9.525) (layer "Dwgs.User") (width 0.15) (tstamp b2147241-4d82-4993-bb6c-d186026e7f11))
  (fp_line (start -7 -7) (end -7 -5) (layer "Dwgs.User") (width 0.15) (tstamp bd95b381-1f5c-4a62-a4f3-f887a99897ee))
  (fp_line (start -7 7) (end -5 7) (layer "Dwgs.User") (width 0.15) (tstamp d8f56cc2-788f-4696-811f-c0011c6aac3d))
  (fp_line (start 7 -7) (end 7 -5) (layer "Dwgs.User") (width 0.15) (tstamp ff086c8d-d40f-4391-978c-cc3e7347ea9b))
  (pad "" np_thru_hole circle (at 0 0) (size 3.9878 3.9878) (drill 3.9878) (layers *.Cu *.Mask) (tstamp 63185a13-abab-4b57-bc5c-a2b706bac67c))
  (pad "" np_thru_hole circle (at 5.08 0 48.0996) (size 1.75 1.75) (drill 1.75) (layers *.Cu *.Mask) (tstamp 70be6a50-5c1c-4cb8-8e46-36d863175fe2))
  (pad "" np_thru_hole circle (at -5.08 0 48.0996) (size 1.75 1.75) (drill 1.75) (layers *.Cu *.Mask) (tstamp d513354f-412c-458a-a9f9-89ef95fa3da0))
  (pad "1" thru_hole circle (at -3.81 -2.54) (size 2.25 2.25) (drill 1.47) (layers *.Cu "B.Mask") (tstamp cfcc6c99-4701-40ca-98b9-eec3660d914d))
  (pad "2" thru_hole circle (at 2.54 -5.08) (size 2.25 2.25) (drill 1.47) (layers *.Cu "B.Mask") (tstamp c86b6c85-badc-41e0-9d98-98bfc6cd2b9c))
  (model "/Users/wenting/Documents/projects/SitinaNe/Hardware/common/footprints.pretty/switch.step"
    (offset (xyz 0 -1 4.7))
    (scale (xyz 1 1 1))
    (rotate (xyz -90 0 0))
  )
)
