(footprint "PRT_1.25MM_4PIN_VER_DIP" (version 20240108) (generator "pcbnew") (generator_version "8.0")
  (layer "F.Cu")
  (property "Reference" "J3" (at 5.490798 19.13589 -90)(unlocked yes)
 (layer "F.SilkS")(hide yes)
(uuid "7397587f-b0b3-4c76-b234-be8816952eb5")
    (effects (font (size 1.524 1.524) (thickness 0.254)))
  )
  (property "Value" "CON4" (at -0.910002 20.659395 -90)(unlocked yes)
 (layer "F.SilkS")(hide yes)
(uuid "9c99b3d3-b982-46a6-8b57-70f713d91804")
    (effects (font (size 1.524 1.524) (thickness 0.254)))
  )
  (property "Footprint" "" (at 0 0 0) (layer "F.Fab")(hide yes)
(uuid "15d66f25-4cca-41a2-8233-c56ffcdd4ede")
    (effects (font (size 1.27 1.27) (thickness 0.15)))
  )
  (property "Datasheet" "" (at 0 0 0) (layer "F.Fab")(hide yes)
(uuid "9f6d8dec-3a69-46b8-9f86-6581266ea86c")
    (effects (font (size 1.27 1.27) (thickness 0.15)))
  )
  (property "Description" "" (at 0 0 0) (layer "F.Fab")(hide yes)
(uuid "05cb28ef-e740-4579-be4d-0b8490c9c8ef")
    (effects (font (size 1.27 1.27) (thickness 0.15)))
  )
  (fp_line (start -3.375 -2.05) (end -3.375 1.15)
    (stroke (width 0.1524) (type solid)) (layer "F.SilkS")(uuid "9b910b3a-79fd-4840-b003-c30958a26f68"))
  (fp_line (start -3.375 -2.05) (end 3.375 -2.05)
    (stroke (width 0.1524) (type solid)) (layer "F.SilkS")(uuid "176f05de-b0e9-433e-9d48-bbf0c7fa2625"))
  (fp_line (start -3.375 1.15) (end 3.375 1.15)
    (stroke (width 0.1524) (type solid)) (layer "F.SilkS")(uuid "bf6aa7f2-8583-4ebe-8705-9048f1057678"))
  (fp_line (start 3.375 -2.05) (end 3.375 1.15)
    (stroke (width 0.1524) (type solid)) (layer "F.SilkS")(uuid "02f35724-c0c6-4fd1-b413-d544793502f0"))
  (pad "1" thru_hole oval (at -1.875 0) (size 0.9 1.2) (drill 0.5) (layers "*.Cu" "*.Mask")(remove_unused_layers no)

(uuid "508f551a-0fe1-4818-9d0f-b51eb5721ee5")
  )
  (pad "2" thru_hole oval (at -0.625 0) (size 0.9 1.2) (drill 0.5) (layers "*.Cu" "*.Mask")(remove_unused_layers no)

(uuid "207d6b74-17e1-4140-95ea-140374b7d12a")
  )
  (pad "3" thru_hole oval (at 0.625 0) (size 0.9 1.2) (drill 0.5) (layers "*.Cu" "*.Mask")(remove_unused_layers no)

(uuid "f6d6cec4-b015-4391-ad4b-9a1f31ca34ed")
  )
  (pad "4" thru_hole oval (at 1.875 0) (size 0.9 1.2) (drill 0.5) (layers "*.Cu" "*.Mask")(remove_unused_layers no)

(uuid "259f3524-a2fe-4612-a351-762082248cf1")
  )
  (model "${KIPRJMOD}/ALTIUM_EMBEDDED_MODELS/530470410.x_t"
    (offset (xyz -0.00009 0.44992 3.3))
    (scale (xyz 1 1 1))
    (rotate (xyz -90 -0 -180))
  )
)
