(footprint "QFN15_3X4_JW3651"
	(version 20240108)
	(generator "pcbnew")
	(generator_version "8.0")
	(layer "F.Cu")
	(property "Reference" "U5"
		(at 0.67351 3.412998 180)
		(unlocked yes)
		(layer "F.SilkS")
		(hide yes)
		(uuid "8af82767-09d2-41f7-8d27-a15603b93d4f")
		(effects
			(font
				(size 1.524 1.524)
				(thickness 0.254)
			)
		)
	)
	(property "Value" "JW3651QFNE"
		(at -5.29356 -3.699002 180)
		(unlocked yes)
		(layer "F.SilkS")
		(hide yes)
		(uuid "db5e4ab9-b1fa-41ab-9ed5-e7a339cbe15b")
		(effects
			(font
				(size 1.524 1.524)
				(thickness 0.254)
			)
		)
	)
	(property "Footprint" ""
		(at 0 0 0)
		(layer "F.Fab")
		(hide yes)
		(uuid "62e43245-a13d-4f83-bd80-805f0018e5b2")
		(effects
			(font
				(size 1.27 1.27)
				(thickness 0.15)
			)
		)
	)
	(property "Datasheet" ""
		(at 0 0 0)
		(layer "F.Fab")
		(hide yes)
		(uuid "0efb0bba-e66e-4ade-9648-e2d75003c8f0")
		(effects
			(font
				(size 1.27 1.27)
				(thickness 0.15)
			)
		)
	)
	(property "Description" ""
		(at 0 0 0)
		(layer "F.Fab")
		(hide yes)
		(uuid "f38cf72a-43b5-4fc2-8c11-453a04e94bbc")
		(effects
			(font
				(size 1.27 1.27)
				(thickness 0.15)
			)
		)
	)
	(fp_line
		(start -1.5762 -2.07621)
		(end -1.5762 -1.5)
		(stroke
			(width 0.1524)
			(type solid)
		)
		(layer "F.SilkS")
		(uuid "dd4cf7d6-7caf-4f40-8b0e-6bded3b49936")
	)
	(fp_line
		(start -1.5762 1.5)
		(end -1.5762 2.0762)
		(stroke
			(width 0.1524)
			(type solid)
		)
		(layer "F.SilkS")
		(uuid "08c4df57-e05f-468f-9cd9-f2dd2072c1ae")
	)
	(fp_line
		(start -1.2 -2.07621)
		(end -1.5762 -2.07621)
		(stroke
			(width 0.1524)
			(type solid)
		)
		(layer "F.SilkS")
		(uuid "ed4ab3fe-d30e-41c6-8922-b114b637ac1c")
	)
	(fp_line
		(start -1 -2.07621)
		(end -1.2 -2.07621)
		(stroke
			(width 0.1524)
			(type solid)
		)
		(layer "F.SilkS")
		(uuid "ff0ada83-0670-4715-9c3c-e0be1b304734")
	)
	(fp_line
		(start -1 2.0762)
		(end -1.5762 2.0762)
		(stroke
			(width 0.1524)
			(type solid)
		)
		(layer "F.SilkS")
		(uuid "860f0c22-339b-4ead-aaee-d58f56211b7e")
	)
	(fp_line
		(start 1.5762 -2.07621)
		(end 1 -2.07621)
		(stroke
			(width 0.1524)
			(type solid)
		)
		(layer "F.SilkS")
		(uuid "a7cb70f5-9ef4-490b-9271-206bebbeada6")
	)
	(fp_line
		(start 1.5762 -2.07621)
		(end 1.5762 -1.50001)
		(stroke
			(width 0.1524)
			(type solid)
		)
		(layer "F.SilkS")
		(uuid "4478b441-4660-48a1-853c-dd1bf5bb7000")
	)
	(fp_line
		(start 1.5762 1.5)
		(end 1.5762 2.0762)
		(stroke
			(width 0.1524)
			(type solid)
		)
		(layer "F.SilkS")
		(uuid "dacbdaca-2106-4ddb-8ca2-ba0dff6e874c")
	)
	(fp_line
		(start 1.5762 2.0762)
		(end 1 2.0762)
		(stroke
			(width 0.1524)
			(type solid)
		)
		(layer "F.SilkS")
		(uuid "d330dc2f-4698-4803-9ddc-cbbbfd022f80")
	)
	(fp_circle
		(center -1.905 -1.7526)
		(end -1.905 -1.6526)
		(stroke
			(width 0.254)
			(type solid)
		)
		(fill none)
		(layer "F.SilkS")
		(uuid "b60b79d6-a551-4595-a8c3-b4b4d5152dcc")
	)
	(pad "1" smd rect
		(at -1.5 -1.25)
		(size 0.8 0.2)
		(layers "F.Cu" "F.Paste" "F.Mask")
		(solder_mask_margin 0.05)
		(uuid "ef2ea2e0-d337-4ce9-af39-0d3c224ba714")
	)
	(pad "2" smd custom
		(at -1.9 -0.85001 180)
		(size 0.000001 0.000001)
		(layers "F.Cu" "F.Paste" "F.Mask")
		(solder_mask_margin 0.05)
		(solder_paste_margin 0.000001)
		(thermal_bridge_angle 90)
		(options
			(clearance outline)
			(anchor circle)
		)
		(primitives
			(gr_poly
				(pts
					(xy 0 0) (xy 0 -0.2) (xy -0.65 -0.2) (xy -0.82 -0.37) (xy -1.62 -0.37) (xy -1.62 -0.17) (xy -0.95 -0.17)
					(xy -0.78 0)
				)
				(width 0)
				(fill yes)
			)
		)
		(uuid "57e26f23-cc07-48b9-a73a-4dd3f0b7bf6c")
	)
	(pad "2" smd circle
		(at -1.09 -0.66501)
		(size 0.0254 0.0254)
		(layers "F.Cu" "F.Paste" "F.Mask")
		(solder_mask_margin 0.05)
		(thermal_bridge_angle 90)
		(uuid "0ee0b173-478c-4848-a652-f3c4471f1b36")
	)
	(pad "3" smd rect
		(at -1.09 0.25)
		(size 1.62 0.2)
		(layers "F.Cu" "F.Paste" "F.Mask")
		(solder_mask_margin 0.05)
		(uuid "9bb3e09b-0e81-45a2-b3d1-da931e1452ec")
	)
	(pad "4" smd custom
		(at -1.9 1.34999 180)
		(size 0.000001 0.000001)
		(layers "F.Cu" "F.Paste" "F.Mask")
		(solder_mask_margin 0.05)
		(solder_paste_margin 0.000001)
		(thermal_bridge_angle 90)
		(options
			(clearance outline)
			(anchor circle)
		)
		(primitives
			(gr_poly
				(pts
					(xy 0 0) (xy 0 0.19999) (xy -0.65 0.19999) (xy -0.82 0.36999) (xy -1.62 0.37) (xy -1.62 0.16999)
					(xy -0.95 0.16999) (xy -0.78 0)
				)
				(width 0)
				(fill yes)
			)
		)
		(uuid "3c3ab239-bf33-4616-b2b7-b6c9b50451e7")
	)
	(pad "4" smd circle
		(at -1.09 1.165)
		(size 0.0254 0.0254)
		(layers "F.Cu" "F.Paste" "F.Mask")
		(solder_mask_margin 0.05)
		(thermal_bridge_angle 90)
		(uuid "66acb11e-c8ab-47ff-b73a-287da25e0224")
	)
	(pad "5" smd roundrect
		(at -0.75 2 90)
		(size 0.8 0.2)
		(layers "F.Cu" "F.Paste" "F.Mask")
		(roundrect_rratio 0.15)
		(solder_mask_margin 0.05)
		(uuid "714244d1-880f-4bd4-825a-0837438ba999")
	)
	(pad "6" smd roundrect
		(at -0.25 2 90)
		(size 0.8 0.2)
		(layers "F.Cu" "F.Paste" "F.Mask")
		(roundrect_rratio 0.15)
		(solder_mask_margin 0.05)
		(uuid "f50d327d-6ada-4569-a4e7-716615ad196b")
	)
	(pad "7" smd roundrect
		(at 0.25 2 90)
		(size 0.8 0.2)
		(layers "F.Cu" "F.Paste" "F.Mask")
		(roundrect_rratio 0.15)
		(solder_mask_margin 0.05)
		(uuid "e856ede1-a911-4e4e-b907-c85e29370187")
	)
	(pad "8" smd roundrect
		(at 0.75 2 90)
		(size 0.8 0.2)
		(layers "F.Cu" "F.Paste" "F.Mask")
		(roundrect_rratio 0.15)
		(solder_mask_margin 0.05)
		(uuid "9f7145e6-cab3-4c5d-8f2b-def6da63241c")
	)
	(pad "9" smd custom
		(at 0.25 0.51 180)
		(size 0.000001 0.000001)
		(layers "F.Cu" "F.Paste" "F.Mask")
		(solder_mask_margin 0.05)
		(solder_paste_margin 0.000001)
		(thermal_bridge_angle 90)
		(options
			(clearance outline)
			(anchor circle)
		)
		(primitives
			(gr_poly
				(pts
					(xy 0 0) (xy 0 -0.19999) (xy -0.73 -0.2) (xy -0.87 -0.34) (xy -1.65 -0.34) (xy -1.65 -0.14) (xy -1.1 -0.14)
					(xy -0.96 0)
				)
				(width 0)
				(fill yes)
			)
		)
		(uuid "ec670e2c-631a-44a1-b1ae-47bf6eeff1b6")
	)
	(pad "9" smd circle
		(at 1.075 0.68)
		(size 0.0254 0.0254)
		(layers "F.Cu" "F.Paste" "F.Mask")
		(solder_mask_margin 0.05)
		(thermal_bridge_angle 90)
		(uuid "62be6a1a-b041-43c2-9fb2-9ab2f25e019c")
	)
	(pad "10" smd custom
		(at 0.25 -0.01 180)
		(size 0.000001 0.000001)
		(layers "F.Cu" "F.Paste" "F.Mask")
		(solder_mask_margin 0.05)
		(solder_paste_margin 0.000001)
		(thermal_bridge_angle 90)
		(options
			(clearance outline)
			(anchor circle)
		)
		(primitives
			(gr_poly
				(pts
					(xy 0 0) (xy 0 0.2) (xy -0.73 0.2) (xy -0.87 0.34) (xy -1.65 0.34) (xy -1.65 0.14) (xy -1.1 0.14001)
					(xy -0.96 0)
				)
				(width 0)
				(fill yes)
			)
		)
		(uuid "3c9086e8-0e7d-493a-820e-2666468c8b09")
	)
	(pad "10" smd circle
		(at 1.075 -0.18)
		(size 0.0254 0.0254)
		(layers "F.Cu" "F.Paste" "F.Mask")
		(solder_mask_margin 0.05)
		(thermal_bridge_angle 90)
		(uuid "cf5b470e-0438-48f7-a16d-36bb8ac8bebc")
	)
	(pad "11" smd rect
		(at 1.5 -1.25)
		(size 0.8 0.2)
		(layers "F.Cu" "F.Paste" "F.Mask")
		(solder_mask_margin 0.05)
		(uuid "c64c5183-523d-4edb-a880-7f632dcd7e66")
	)
	(pad "12" smd roundrect
		(at 0.75 -2.00001 90)
		(size 0.8 0.2)
		(layers "F.Cu" "F.Paste" "F.Mask")
		(roundrect_rratio 0.15)
		(solder_mask_margin 0.05)
		(uuid "d0deb042-32ae-4cca-b3d4-3c0415d74fc8")
	)
	(pad "13" smd roundrect
		(at 0.25 -2.00001 90)
		(size 0.8 0.2)
		(layers "F.Cu" "F.Paste" "F.Mask")
		(roundrect_rratio 0.15)
		(solder_mask_margin 0.05)
		(uuid "ef2b9c63-4c13-45e4-ac0d-63126ac6e3e3")
	)
	(pad "14" smd roundrect
		(at -0.25 -2.00001 90)
		(size 0.8 0.2)
		(layers "F.Cu" "F.Paste" "F.Mask")
		(roundrect_rratio 0.15)
		(solder_mask_margin 0.05)
		(uuid "2b983c65-ff2a-4bdd-86b8-40c3a761627b")
	)
	(pad "15" smd roundrect
		(at -0.75 -2.00001 90)
		(size 0.8 0.2)
		(layers "F.Cu" "F.Paste" "F.Mask")
		(roundrect_rratio 0.15)
		(solder_mask_margin 0.05)
		(uuid "fd1a8abc-8f05-45bb-8e63-854def089414")
	)
)
