(footprint "TM4175" (version 20210228) (generator pcbnew) (layer "F.Cu")
  (tedit 6059252B)
  (descr "https://datasheet.lcsc.com/szlcsc/2002271924_XKB-Enterprise-TM-4175-B-B_C465996.pdf")
  (tags "SMD SMT")
  (attr smd)
  (fp_text reference "REF**" (at 0 -4.5) (layer "F.SilkS")
    (effects (font (size 1 1) (thickness 0.15)))
    (tstamp 03474403-b360-45ca-8d52-6eb450b3663a)
  )
  (fp_text value "TM4175" (at 0 3.5) (layer "F.Fab")
    (effects (font (size 1 1) (thickness 0.15)))
    (tstamp 9a99409b-140b-4f4f-bdef-01d8ba789731)
  )
  (fp_text user "${REFERENCE}" (at 0 0) (layer "F.Fab")
    (effects (font (size 1 1) (thickness 0.15)))
    (tstamp fb07fe56-1f89-42c3-b03a-2799499d3dda)
  )
  (fp_line (start -1.2375 -3.8) (end -3.8 -3.8) (layer "F.SilkS") (width 0.12) (tstamp 22956851-8324-4e42-ae93-8662eaf606c1))
  (fp_line (start 3.8 -3.8) (end 1.2 -3.8) (layer "F.SilkS") (width 0.12) (tstamp 4b64571b-e529-48ff-8bf6-93bd7a705f45))
  (fp_line (start 3.8 -2.1) (end 3.8 -3.775) (layer "F.SilkS") (width 0.12) (tstamp 57aab82c-9759-4ffd-b5ea-3358381648de))
  (fp_line (start -3.8 2.05) (end -3.8 3.725) (layer "F.SilkS") (width 0.12) (tstamp 7a4b0f2c-2eae-481a-b6df-92ca79501cfe))
  (fp_line (start -3.8 -2.1) (end -3.8 -3.8) (layer "F.SilkS") (width 0.12) (tstamp 9b4ccd30-4f6c-4cbb-905e-b3055f479f5a))
  (fp_line (start -3.8 3.75) (end -1.2 3.75) (layer "F.SilkS") (width 0.12) (tstamp e77183f8-01db-46c0-9bbc-7fbd1906f3af))
  (fp_line (start 3.8 2.05) (end 3.8 3.75) (layer "F.SilkS") (width 0.12) (tstamp f2637453-9d08-437d-a47d-039c581fcfef))
  (fp_line (start 1.2375 3.75) (end 3.8 3.75) (layer "F.SilkS") (width 0.12) (tstamp f84d482c-f844-4dd0-b209-5af4a5462c7c))
  (fp_line (start -4.4 5) (end -4.4 -5) (layer "F.CrtYd") (width 0.05) (tstamp 26c0f83e-4052-4f64-afe1-82ccf0a6eb78))
  (fp_line (start 4.4 5) (end -4.4 5) (layer "F.CrtYd") (width 0.05) (tstamp 97709e9c-b9f9-4d92-ba48-6b8c6aca414f))
  (fp_line (start 4.4 5) (end 4.4 -5) (layer "F.CrtYd") (width 0.05) (tstamp b74aa539-cd70-4713-a2d9-9b523f859ce9))
  (fp_line (start 4.4 -5) (end -4.4 -5) (layer "F.CrtYd") (width 0.05) (tstamp c99744a5-b360-4efc-8f82-9dcc6ca05693))
  (fp_line (start 3.75 3.75) (end -3.75 3.75) (layer "F.Fab") (width 0.1) (tstamp 5c54828c-b3cb-458c-a85a-029bceaca471))
  (fp_line (start 3.75 -3.75) (end -3.75 -3.75) (layer "F.Fab") (width 0.1) (tstamp 606f6ec1-15f7-42a3-97dd-515007d12ade))
  (fp_line (start -3.75 3.75) (end -3.75 -3.75) (layer "F.Fab") (width 0.1) (tstamp 6d77d60c-b952-4ad9-a1a2-74730af84439))
  (fp_line (start 3.75 3.75) (end 3.75 -3.75) (layer "F.Fab") (width 0.1) (tstamp e49a3659-4022-42b9-b426-ddb6a6ec68e3))
  (pad "" np_thru_hole circle (at 0 -1.9 180) (locked) (size 0.8 0.8) (drill 0.8) (layers F&B.Cu *.Mask) (tstamp 3c2c28fd-7011-4c38-b7b3-4b4e0164f0e2))
  (pad "" np_thru_hole circle (at 0 1.9 180) (locked) (size 1.1 1.1) (drill 1.1) (layers F&B.Cu *.Mask) (tstamp 4eb0690e-61e9-4bae-9142-8475f289dbc5))
  (pad "1" smd rect (at 3.58 1.425 180) (locked) (size 1.35 1) (layers "F.Cu" "F.Paste" "F.Mask") (tstamp 85319e7b-0020-48aa-90f7-9a7d9241e22b))
  (pad "2" smd rect (at 3.58 0 180) (locked) (size 1.35 1) (layers "F.Cu" "F.Paste" "F.Mask") (tstamp 84a46c5b-f642-47ee-a8ff-dc3c2797685d))
  (pad "3" smd rect (at 3.58 -1.425 180) (locked) (size 1.35 1) (layers "F.Cu" "F.Paste" "F.Mask") (tstamp 03263543-4687-4383-b248-a4075be1f5d7))
  (pad "4" smd rect (at -3.58 1.425 180) (locked) (size 1.35 1) (layers "F.Cu" "F.Paste" "F.Mask") (tstamp 650bd2e4-cb63-426d-8f76-ffa3807d2744))
  (pad "5" smd rect (at -3.58 0 180) (locked) (size 1.35 1) (layers "F.Cu" "F.Paste" "F.Mask") (tstamp 900d95d5-a730-4f95-82f4-05d9b5619c65))
  (pad "6" smd rect (at -3.58 -1.425 180) (locked) (size 1.35 1) (layers "F.Cu" "F.Paste" "F.Mask") (tstamp e9e42546-b9a4-47d8-81f9-922a6bbab3d6))
  (pad "MP" smd rect (at 0 4 180) (locked) (size 2 1.8) (layers "F.Cu" "F.Paste" "F.Mask") (tstamp 7a2f897b-37a6-41fa-8c20-1cc7779a2106))
  (pad "MP" smd rect (at 0 -4 180) (locked) (size 2 1.8) (layers "F.Cu" "F.Paste" "F.Mask") (tstamp e9657437-7057-4a05-836c-6f947674fb9c))
  (model "${KICAD6_3DMODEL_DIR}/Button_Switch_SMD.3dshapes/Panasonic_EVQPUM_EVQPUD.wrl"
    (offset (xyz 0 0 0))
    (scale (xyz 1 1 1))
    (rotate (xyz 0 0 0))
  )
)
