(footprint "XUNPU_TypeC-324G-ACP24"
	(version 20240108)
	(generator "pcbnew")
	(generator_version "8.0")
	(layer "F.Cu")
	(property "Reference" "REF**"
		(at -1.27 -9.525 0)
		(layer "F.SilkS")
		(uuid "d3be9b9e-ff7f-4bb9-8f14-e46d4012521a")
		(effects
			(font
				(size 1 1)
				(thickness 0.15)
			)
		)
	)
	(property "Value" "XUNPU_TypeC-324G-ACP24"
		(at 11.43 -7.62 0)
		(layer "F.Fab")
		(uuid "3633ab49-c0a2-4353-91f8-4e66a8137092")
		(effects
			(font
				(size 1 1)
				(thickness 0.15)
			)
		)
	)
	(property "Footprint" "XUNPU_TypeC-324G-ACP24"
		(at 0 0 0)
		(unlocked yes)
		(layer "F.Fab")
		(hide yes)
		(uuid "9bba8f86-d89e-4aa7-8c0c-f67b84f5a1c7")
		(effects
			(font
				(size 1.27 1.27)
			)
		)
	)
	(property "Datasheet" ""
		(at 0 0 0)
		(unlocked yes)
		(layer "F.Fab")
		(hide yes)
		(uuid "67fcd526-8049-4144-9a21-2f0b05f7d700")
		(effects
			(font
				(size 1.27 1.27)
			)
		)
	)
	(property "Description" ""
		(at 0 0 0)
		(unlocked yes)
		(layer "F.Fab")
		(hide yes)
		(uuid "68cde8be-e3e3-46fe-9d90-9914f00f8b7e")
		(effects
			(font
				(size 1.27 1.27)
			)
		)
	)
	(attr smd)
	(fp_line
		(start -4.47 -1.6385)
		(end -4.47 -3.5615)
		(stroke
			(width 0.127)
			(type solid)
		)
		(layer "F.SilkS")
		(uuid "9d209dca-b1bc-40fd-a5b9-5b3f38a56e5a")
	)
	(fp_line
		(start -4.47 1.8)
		(end -4.47 1.6385)
		(stroke
			(width 0.127)
			(type solid)
		)
		(layer "F.SilkS")
		(uuid "3b6eea9e-4ec0-479f-9be7-882a155694ab")
	)
	(fp_line
		(start -3.3815 -5.32)
		(end -3.0735 -5.32)
		(stroke
			(width 0.127)
			(type solid)
		)
		(layer "F.SilkS")
		(uuid "852de9cc-bab3-44ee-b78f-fb9dfcf5a171")
	)
	(fp_line
		(start 3.322 -5.32)
		(end 3.38 -5.32)
		(stroke
			(width 0.127)
			(type solid)
		)
		(layer "F.SilkS")
		(uuid "6a6fbea4-7e3e-4845-90a6-d20115fb20b8")
	)
	(fp_line
		(start 4.47 -3.5615)
		(end 4.47 -1.6385)
		(stroke
			(width 0.127)
			(type solid)
		)
		(layer "F.SilkS")
		(uuid "2ee5d1b5-4aab-4739-a9c6-bf91a55b3dbb")
	)
	(fp_line
		(start 4.47 1.6385)
		(end 4.47 1.8)
		(stroke
			(width 0.127)
			(type solid)
		)
		(layer "F.SilkS")
		(uuid "d0d8a12c-ee6b-4d2b-a1a5-f17ab77e3ac5")
	)
	(fp_line
		(start 4.47 1.8)
		(end -4.47 1.8)
		(stroke
			(width 0.127)
			(type solid)
		)
		(layer "F.SilkS")
		(uuid "5e89f405-6a4a-4310-b6a0-ddceb1a7f6e6")
	)
	(fp_circle
		(center -2.625 -6.22)
		(end -2.525 -6.22)
		(stroke
			(width 0.2)
			(type solid)
		)
		(fill none)
		(layer "F.SilkS")
		(uuid "5a9b2714-8d84-4f53-953a-821612b1a265")
	)
	(fp_line
		(start -5.245 -6.475)
		(end 5.245 -6.475)
		(stroke
			(width 0.05)
			(type solid)
		)
		(layer "F.CrtYd")
		(uuid "9d1df963-d406-4e86-89d0-4ea6e6fd31ae")
	)
	(fp_line
		(start -5.245 2.55)
		(end -5.245 -6.475)
		(stroke
			(width 0.05)
			(type solid)
		)
		(layer "F.CrtYd")
		(uuid "3f31d483-663a-4457-8029-fb803fc2e993")
	)
	(fp_line
		(start 5.245 -6.475)
		(end 5.245 2.55)
		(stroke
			(width 0.05)
			(type solid)
		)
		(layer "F.CrtYd")
		(uuid "a9cf892e-e906-43ab-a5d0-536a650e67ec")
	)
	(fp_line
		(start 5.245 2.55)
		(end -5.245 2.55)
		(stroke
			(width 0.05)
			(type solid)
		)
		(layer "F.CrtYd")
		(uuid "2f98a695-c74b-48a4-811b-bb9213419da7")
	)
	(fp_line
		(start -4.47 -5.2)
		(end 4.47 -5.2)
		(stroke
			(width 0.127)
			(type solid)
		)
		(layer "F.Fab")
		(uuid "8dda6802-8019-45f0-960d-9413080b7eb6")
	)
	(fp_line
		(start -4.47 1.8)
		(end -4.47 -5.2)
		(stroke
			(width 0.127)
			(type solid)
		)
		(layer "F.Fab")
		(uuid "7cd53d59-85b3-49d9-a674-2030bf9fdcc1")
	)
	(fp_line
		(start -4.47 1.8)
		(end 14.605 1.8)
		(stroke
			(width 0.127)
			(type solid)
		)
		(layer "F.Fab")
		(uuid "c699e2a6-45b5-4e18-b87f-d724bc7520b7")
	)
	(fp_line
		(start -4.47 2.7)
		(end -4.47 1.8)
		(stroke
			(width 0.127)
			(type solid)
		)
		(layer "F.Fab")
		(uuid "3e76dc12-305f-404a-9461-e32754d61f92")
	)
	(fp_line
		(start 4.47 -5.2)
		(end 4.47 2.7)
		(stroke
			(width 0.127)
			(type solid)
		)
		(layer "F.Fab")
		(uuid "f0e49e6f-f7af-472f-a3d8-979c411314b2")
	)
	(fp_line
		(start 4.47 2.7)
		(end -4.47 2.7)
		(stroke
			(width 0.127)
			(type solid)
		)
		(layer "F.Fab")
		(uuid "097fbf56-637b-4c39-992e-00de161a94d1")
	)
	(fp_circle
		(center -2.625 -6.22)
		(end -2.525 -6.22)
		(stroke
			(width 0.2)
			(type solid)
		)
		(fill none)
		(layer "F.Fab")
		(uuid "42b67780-38e5-472c-b08c-9a6dcb7c568d")
	)
	(fp_text user "PCB EDGE"
		(at 5.715 1.27 0)
		(layer "F.Fab")
		(uuid "7a215f27-6e6c-4287-b514-bf2e7d800832")
		(effects
			(font
				(size 1 1)
				(thickness 0.15)
			)
		)
	)
	(pad "" np_thru_hole circle
		(at -3.4 -3.2)
		(size 0.6 0.6)
		(drill 0.6)
		(layers "F&B.Cu" "*.Mask")
		(uuid "a785c748-fd41-4d78-8c37-fff9b22fddd4")
	)
	(pad "" np_thru_hole circle
		(at 3.4 -3.2)
		(size 0.6 0.6)
		(drill 0.6)
		(layers "F&B.Cu" "*.Mask")
		(uuid "cf12dabe-062d-406f-b1e3-0631d5855b3e")
	)
	(pad "A1" smd rect
		(at -2.625 -5.23)
		(size 0.27 0.85)
		(layers "F.Cu" "F.Paste" "F.Mask")
		(solder_mask_margin 0.102)
		(uuid "7f651ac3-c338-45f5-8d19-c9121924e920")
	)
	(pad "A2" smd rect
		(at -2.125 -5.23)
		(size 0.27 0.85)
		(layers "F.Cu" "F.Paste" "F.Mask")
		(solder_mask_margin 0.102)
		(uuid "5008d03c-727f-420c-82bf-2c0248739a6c")
	)
	(pad "A3" smd rect
		(at -1.625 -5.23)
		(size 0.27 0.85)
		(layers "F.Cu" "F.Paste" "F.Mask")
		(solder_mask_margin 0.102)
		(uuid "acd6229b-d41f-4aec-a0ad-c4e79e1a479a")
	)
	(pad "A4" smd rect
		(at -1.125 -5.23)
		(size 0.27 0.85)
		(layers "F.Cu" "F.Paste" "F.Mask")
		(solder_mask_margin 0.102)
		(uuid "bf24dcae-93e2-463e-a166-11a31ead8db2")
	)
	(pad "A5" smd rect
		(at -0.625 -5.23)
		(size 0.27 0.85)
		(layers "F.Cu" "F.Paste" "F.Mask")
		(solder_mask_margin 0.102)
		(uuid "75646383-5ada-4138-80c7-566c23931e6f")
	)
	(pad "A6" smd rect
		(at -0.125 -5.23)
		(size 0.27 0.85)
		(layers "F.Cu" "F.Paste" "F.Mask")
		(solder_mask_margin 0.102)
		(uuid "647748d4-2d45-4586-967a-0889ea69d598")
	)
	(pad "A7" smd rect
		(at 0.375 -5.23)
		(size 0.27 0.85)
		(layers "F.Cu" "F.Paste" "F.Mask")
		(solder_mask_margin 0.102)
		(uuid "db8c42f7-5090-47b2-8356-70a926c24659")
	)
	(pad "A8" smd rect
		(at 0.875 -5.23)
		(size 0.27 0.85)
		(layers "F.Cu" "F.Paste" "F.Mask")
		(solder_mask_margin 0.102)
		(uuid "be1f5c30-6d64-4b15-851b-4d04e467d7ce")
	)
	(pad "A9" smd rect
		(at 1.375 -5.23)
		(size 0.27 0.85)
		(layers "F.Cu" "F.Paste" "F.Mask")
		(solder_mask_margin 0.102)
		(uuid "4b5d2888-5970-482d-881d-05b1dcea4299")
	)
	(pad "A10" smd rect
		(at 1.875 -5.23)
		(size 0.27 0.85)
		(layers "F.Cu" "F.Paste" "F.Mask")
		(solder_mask_margin 0.102)
		(uuid "8a63d017-76f5-478f-9eb4-479dea9922ec")
	)
	(pad "A11" smd rect
		(at 2.375 -5.23)
		(size 0.27 0.85)
		(layers "F.Cu" "F.Paste" "F.Mask")
		(solder_mask_margin 0.102)
		(uuid "203004f4-261b-4bdf-8141-e44cc57620e0")
	)
	(pad "A12" smd rect
		(at 2.875 -5.23)
		(size 0.27 0.85)
		(layers "F.Cu" "F.Paste" "F.Mask")
		(solder_mask_margin 0.102)
		(uuid "e937b084-331d-41dd-b3c0-851d8aab6a79")
	)
	(pad "B1" smd rect
		(at 2.62 -3.83)
		(size 0.27 0.85)
		(layers "F.Cu" "F.Paste" "F.Mask")
		(solder_mask_margin 0.102)
		(uuid "cc871dde-0892-43e6-aa7f-6a606e4eb7e1")
	)
	(pad "B2" smd rect
		(at 2.12 -3.83)
		(size 0.27 0.85)
		(layers "F.Cu" "F.Paste" "F.Mask")
		(solder_mask_margin 0.102)
		(uuid "b7143d20-1036-4292-be22-876b7b6ee32f")
	)
	(pad "B3" smd rect
		(at 1.62 -3.83)
		(size 0.27 0.85)
		(layers "F.Cu" "F.Paste" "F.Mask")
		(solder_mask_margin 0.102)
		(uuid "b8a2bb96-6e96-4323-807d-98d109746b84")
	)
	(pad "B4" smd rect
		(at 1.12 -3.83)
		(size 0.27 0.85)
		(layers "F.Cu" "F.Paste" "F.Mask")
		(solder_mask_margin 0.102)
		(uuid "721e7f6a-fb0f-439d-9f2b-74c4cd5725c7")
	)
	(pad "B5" smd rect
		(at 0.62 -3.83)
		(size 0.27 0.85)
		(layers "F.Cu" "F.Paste" "F.Mask")
		(solder_mask_margin 0.102)
		(uuid "a6f03e21-876c-4939-9fb6-c96a3fc922c1")
	)
	(pad "B6" smd rect
		(at 0.12 -3.83)
		(size 0.27 0.85)
		(layers "F.Cu" "F.Paste" "F.Mask")
		(solder_mask_margin 0.102)
		(uuid "666c580f-4148-469a-94c4-a40621e538c6")
	)
	(pad "B7" smd rect
		(at -0.38 -3.83)
		(size 0.27 0.85)
		(layers "F.Cu" "F.Paste" "F.Mask")
		(solder_mask_margin 0.102)
		(uuid "97a66b22-379d-4904-b820-6ba61470444a")
	)
	(pad "B8" smd rect
		(at -0.88 -3.83)
		(size 0.27 0.85)
		(layers "F.Cu" "F.Paste" "F.Mask")
		(solder_mask_margin 0.102)
		(uuid "39a4ee2a-c7b7-43d2-88d2-0f586283caef")
	)
	(pad "B9" smd rect
		(at -1.38 -3.83)
		(size 0.27 0.85)
		(layers "F.Cu" "F.Paste" "F.Mask")
		(solder_mask_margin 0.102)
		(uuid "8742f1c8-c981-445b-8ac1-f2955d19b872")
	)
	(pad "B10" smd rect
		(at -1.88 -3.83)
		(size 0.27 0.85)
		(layers "F.Cu" "F.Paste" "F.Mask")
		(solder_mask_margin 0.102)
		(uuid "b547aedb-ca5a-42aa-ac28-8daea2ba4016")
	)
	(pad "B11" smd rect
		(at -2.38 -3.83)
		(size 0.27 0.85)
		(layers "F.Cu" "F.Paste" "F.Mask")
		(solder_mask_margin 0.102)
		(uuid "68c16d80-ee9d-4871-a6d2-4c9a00064421")
	)
	(pad "B12" smd rect
		(at -2.88 -3.83)
		(size 0.27 0.85)
		(layers "F.Cu" "F.Paste" "F.Mask")
		(solder_mask_margin 0.102)
		(uuid "c9a8f7d2-60f2-49b9-8e61-3d1cbc588d86")
	)
	(pad "S1" thru_hole oval
		(at -4.325 -4.55)
		(size 1 2)
		(drill oval 0.6 1.6)
		(layers "*.Cu" "*.Mask")
		(remove_unused_layers no)
		(uuid "587a833c-380c-4623-a4c5-26a13b951a76")
	)
	(pad "S1" thru_hole oval
		(at -4.32 0)
		(size 1 2.3)
		(drill oval 0.6 1.9)
		(layers "*.Cu" "*.Mask")
		(remove_unused_layers no)
		(solder_mask_margin 0.102)
		(uuid "82160c7e-cb98-46a5-9ac3-a1089d46bcba")
	)
	(pad "S1" thru_hole oval
		(at -4 -4.05)
		(size 1.54 1)
		(drill oval 1.2 0.6)
		(layers "*.Cu" "*.Mask")
		(remove_unused_layers no)
		(uuid "a69da7c2-f29a-4bf0-bcea-a92c69b75d07")
	)
	(pad "S1" thru_hole oval
		(at 4 -4.05)
		(size 1.54 1)
		(drill oval 1.2 0.6)
		(layers "*.Cu" "*.Mask")
		(remove_unused_layers no)
		(uuid "eae15cca-1430-448f-b24c-8e1d547fff37")
	)
	(pad "S1" thru_hole oval
		(at 4.32 0)
		(size 1 2.3)
		(drill oval 0.6 1.9)
		(layers "*.Cu" "*.Mask")
		(remove_unused_layers no)
		(solder_mask_margin 0.102)
		(uuid "bf138a85-5635-4496-8b88-010b4595c1df")
	)
	(pad "S1" thru_hole oval
		(at 4.325 -4.55)
		(size 1 2)
		(drill oval 0.6 1.6)
		(layers "*.Cu" "*.Mask")
		(remove_unused_layers no)
		(uuid "9f2098bd-55c9-4af6-a9c8-8c7828650e87")
	)
	(model "${KIPRJMOD}/../pcb_common/footprints.pretty/10137065-00021LF.step"
		(offset
			(xyz 0 0 0)
		)
		(scale
			(xyz 1 1 1)
		)
		(rotate
			(xyz -90 0 0)
		)
	)
)
