(footprint "YTC1P-4520"
	(version 20240108)
	(generator "pcbnew")
	(generator_version "8.0")
	(layer "F.Cu")
	(property "Reference" "REF**"
		(at 0 -1.998 0)
		(layer "F.SilkS")
		(uuid "73dbb00e-082b-4c47-a5e8-349b5d30d4ab")
		(effects
			(font
				(size 1 1)
				(thickness 0.15)
			)
		)
	)
	(property "Value" "YTC1P-4520"
		(at 0 2.05 0)
		(layer "F.Fab")
		(uuid "8051e314-67a2-4b92-9ca0-f8a4708006a4")
		(effects
			(font
				(size 1 1)
				(thickness 0.15)
			)
		)
	)
	(property "Footprint" "YTC1P-4520"
		(at 0 0 0)
		(unlocked yes)
		(layer "F.Fab")
		(hide yes)
		(uuid "c35f134a-c821-4574-bb69-18e515c0eb89")
		(effects
			(font
				(size 1.27 1.27)
			)
		)
	)
	(property "Datasheet" ""
		(at 0 0 0)
		(unlocked yes)
		(layer "F.Fab")
		(hide yes)
		(uuid "40ad42f5-e2d0-4e9e-be21-5e28f47c7f3d")
		(effects
			(font
				(size 1.27 1.27)
			)
		)
	)
	(property "Description" ""
		(at 0 0 0)
		(unlocked yes)
		(layer "F.Fab")
		(hide yes)
		(uuid "64d104f9-2e74-41bc-b450-4d835f388b76")
		(effects
			(font
				(size 1.27 1.27)
			)
		)
	)
	(attr exclude_from_pos_files exclude_from_bom)
	(fp_circle
		(center 0 0)
		(end 0 1.1)
		(stroke
			(width 0.12)
			(type solid)
		)
		(fill none)
		(layer "F.SilkS")
		(uuid "b5b6e09d-9944-4950-8fb1-281d00dc9306")
	)
	(fp_circle
		(center 0 0)
		(end 1.1 0)
		(stroke
			(width 0.05)
			(type solid)
		)
		(fill none)
		(layer "F.CrtYd")
		(uuid "efb1b4c8-d2ab-4de8-a462-72ec395048a8")
	)
	(fp_text user "${REFERENCE}"
		(at 0 -2 0)
		(layer "F.Fab")
		(uuid "72b10afb-7cb5-4463-8791-79d6bbaccb9d")
		(effects
			(font
				(size 1 1)
				(thickness 0.15)
			)
		)
	)
	(pad "1" smd circle
		(at 0 0)
		(size 2 2)
		(layers "F.Cu" "F.Mask")
		(uuid "66dd818e-46c3-4cc6-8165-861578cda9d2")
	)
	(model "${KIPRJMOD}/../pcb_common/footprints.pretty/YTC1P-4520.STEP"
		(offset
			(xyz 0 0 0)
		)
		(scale
			(xyz 1 1 1)
		)
		(rotate
			(xyz -90 0 0)
		)
	)
)
